{
 "helix_out": {
  "2": {
   "N": 476,
   "Wr": 1.5042399054707591,
   "Tw": -0.4856869821775578,
   "overtwist": 0.0021398170657420195
  },
  "4": {
   "N": 476,
   "Wr": 3.3207016255671227,
   "Tw": -0.43678062995118977,
   "overtwist": 0.0060586575538149855
  },
  "8": {
   "N": 512,
   "Wr": 7.01567180724883,
   "Tw": -0.2509919017065586,
   "Lk": 6.7646799055422715,
   "overtwist": 0.013212265440512249
  },
  "16": {
   "N": 512,
   "Wr": 14.243110285396412,
   "Tw": -0.44636590856467506,
   "Lk": 13.796744376831738,
   "overtwist": 0.026946766360999488
  },
  "32": {
   "N": 512,
   "Wr": 26.76912169344128,
   "Tw": 0.12261812699432216,
   "Lk": 26.891739820435603,
   "overtwist": 0.05252292933678829
  },
  "64": {
   "N": 5714,
   "Wr": 61.674621409204725,
   "Tw": -0.03951085610552956,
   "overtwist": 0.010786683680976407
  },
  "128": {
   "N": 5714,
   "Wr": 121.23787201354006,
   "Tw": -0.4981522946539905,
   "overtwist": 0.02113050747617887
  },
  "200": {
   "N": 5714,
   "Wr": 184.20078218627575,
   "Tw": -0.39369248956968506,
   "overtwist": 0.03216784908937803
  },
  "256": {
   "N": 5714,
   "Wr": 229.96817119806104,
   "Tw": -0.12459466067353318,
   "overtwist": 0.04022463712589911
  },
  "300": {
   "N": 5714,
   "Wr": 263.7944146041192,
   "Tw": 0.07194788365117664,
   "overtwist": 0.04617892238147889
  },
  "350": {
   "N": 5714,
   "Wr": 299.7675526192609,
   "Tw": 0.12058259697703916,
   "overtwist": 0.05248304781523241
  },
  "512": {
   "N": 5714,
   "Wr": 395.3073066534824,
   "Tw": -0.36791584666395794,
   "overtwist": 0.06911784928365741
  },
  "25": {
   "N": 512,
   "Wr": 21.648754322486862,
   "Tw": 0.20861243713363595,
   "Lk": 21.857366759620497,
   "overtwist": 0.04269016945238378
  },
  "50": {
   "N": 1024,
   "Wr": 43.916054232626315,
   "Tw": -0.05965341284794976,
   "Lk": 43.856400819778365,
   "overtwist": 0.04282851642556481
  },
  "75": {
   "N": 1024,
   "Wr": 61.25519925619409,
   "Tw": -0.34224438194804835,
   "Lk": 60.91295487424604,
   "overtwist": 0.0594853074943809
  },
  "100": {
   "N": 5714,
   "Wr": 95.58107681986769,
   "Tw": 0.12080492256299881,
   "overtwist": 0.016748666738262283
  },
  "125": {
   "N": 5714,
   "Wr": 118.51941477542198,
   "Tw": 0.2165931831482262,
   "overtwist": 0.020779840384769023
  },
  "150": {
   "N": 5714,
   "Wr": 140.9456308481542,
   "Tw": -0.18185239324567762,
   "overtwist": 0.0246348929742577
  },
  "175": {
   "N": 5714,
   "Wr": 162.84498373197243,
   "Tw": -0.05789886539754393,
   "overtwist": 0.028489164309866102
  },
  "225": {
   "N": 5714,
   "Wr": 204.99460818239575,
   "Tw": -0.17004775512981474,
   "overtwist": 0.035846090379290506
  },
  "250": {
   "N": 5714,
   "Wr": 225.20635432857185,
   "Tw": -0.36632773240522476,
   "overtwist": 0.0393489721029343
  },
  "275": {
   "N": 5714,
   "Wr": 244.8141822000762,
   "Tw": 0.039688333191961876,
   "overtwist": 0.042851569921818024
  },
  "325": {
   "N": 5714,
   "Wr": 282.12145446334785,
   "Tw": -0.24371634297613795,
   "overtwist": 0.04933107072460128
  },
  "375": {
   "N": 5714,
   "Wr": 316.70273201165145,
   "Tw": 0.19497213278496064,
   "overtwist": 0.05545987121883732
  },
  "40": {
   "N": 512,
   "Wr": 31.830857495028166,
   "Tw": 0.09108857478360252,
   "Lk": 31.921946069811767,
   "overtwist": 0.06234755091760111
  },
  "140": {
   "N": 5714,
   "Wr": 132.03749618013623,
   "Tw": -0.28420437621171224,
   "overtwist": 0.023057978964635024
  },
  "240": {
   "N": 5714,
   "Wr": 217.19286386304117,
   "Tw": -0.3588098049431322,
   "overtwist": 0.03794785685300981
  },
  "340": {
   "N": 5714,
   "Wr": 292.79269198810044,
   "Tw": 0.09139172199240772,
   "overtwist": 0.05125727751314191
  },
  "60": {
   "N": 1024,
   "Wr": 51.32726714954618,
   "Tw": -0.4450298615406178,
   "Lk": 50.88223728800556,
   "overtwist": 0.04968968485156793
  },
  "160": {
   "N": 2048,
   "Wr": 128.9826791908283,
   "Tw": -0.06123059327223273,
   "Lk": 128.92144859755606,
   "overtwist": 0.06294992607302542
  },
  "260": {
   "N": 5714,
   "Wr": 233.12323651455466,
   "Tw": -0.2774976408504337,
   "overtwist": 0.040750041804988486
  },
  "360": {
   "N": 5714,
   "Wr": 306.62869807738286,
   "Tw": 0.2633606906802738,
   "overtwist": 0.053708795724197254
  },
  "30": {
   "N": 512,
   "Wr": 25.367882269038155,
   "Tw": -0.4850625728791623,
   "Lk": 24.882819696158993,
   "overtwist": 0.048599257219060533
  },
  "130": {
   "N": 5714,
   "Wr": 123.04606775525431,
   "Tw": -0.3040727305685539,
   "overtwist": 0.021480923175478783
  },
  "230": {
   "N": 5714,
   "Wr": 209.08419643115064,
   "Tw": -0.2563971591146662,
   "overtwist": 0.03654669220721666
  },
  "330": {
   "N": 5714,
   "Wr": 285.7060692104891,
   "Tw": 0.17381578078492171,
   "overtwist": 0.05003148144754533
  },
  "70": {
   "N": 1024,
   "Wr": 58.11485834133562,
   "Tw": -0.21127144475990342,
   "Lk": 57.90358689657572,
   "overtwist": 0.056546471578687224
  },
  "80": {
   "N": 1024,
   "Wr": 64.21458567113675,
   "Tw": -0.29298552304381736,
   "Lk": 63.92160014809293,
   "overtwist": 0.062423437644622
  },
  "170": {
   "N": 5714,
   "Wr": 158.5080384001212,
   "Tw": 0.27467989302538104,
   "overtwist": 0.02778836511955663
  },
  "270": {
   "N": 5714,
   "Wr": 240.94203496402577,
   "Tw": -0.09082204491846346,
   "overtwist": 0.042151069814334495
  },
  "370": {
   "N": 5714,
   "Wr": 313.37409775915376,
   "Tw": -0.47823943627115084,
   "overtwist": 0.05475951318216356
  },
  "180": {
   "N": 5714,
   "Wr": 167.16019190711586,
   "Tw": -0.36887192316208717,
   "overtwist": 0.02918994049421662
  },
  "10": {
   "N": 512,
   "Wr": 8.86231580010698,
   "Tw": -0.10430005773257274,
   "Lk": 8.758015742374408,
   "overtwist": 0.017105499496825015
  },
  "20": {
   "N": 512,
   "Wr": 17.641362321705333,
   "Tw": 0.18489984264682607,
   "Lk": 17.82626216435216,
   "overtwist": 0.03481691828975031
  },
  "90": {
   "N": 2048,
   "Wr": 80.62384676801986,
   "Tw": 0.21699028242125484,
   "Lk": 80.84083705044111,
   "overtwist": 0.0394730649660357
  },
  "110": {
   "N": 5714,
   "Wr": 104.81701417927779,
   "Tw": -0.10055499121823198,
   "overtwist": 0.01832629667274406
  },
  "120": {
   "N": 5714,
   "Wr": 113.97228353493634,
   "Tw": -0.2425138409633355,
   "overtwist": 0.019903704881689358
  },
  "190": {
   "N": 5714,
   "Wr": 175.7248264617476,
   "Tw": 0.07459788295901842,
   "overtwist": 0.030766437582202766
  },
  "210": {
   "N": 5714,
   "Wr": 192.58683409501893,
   "Tw": 0.227511012721653,
   "overtwist": 0.03374419760373479
  },
  "220": {
   "N": 5714,
   "Wr": 200.8817383718482,
   "Tw": -0.060500412566329945,
   "overtwist": 0.03514547391657016
  },
  "280": {
   "N": 5714,
   "Wr": 248.661227519789,
   "Tw": 0.19524214491072978,
   "overtwist": 0.04355205979431217
  },
  "290": {
   "N": 5714,
   "Wr": 256.27923129692346,
   "Tw": -0.41771439869159804,
   "overtwist": 0.044778004357408446
  },
  "310": {
   "N": 5714,
   "Wr": 271.20512130690713,
   "Tw": -0.33408067508137157,
   "overtwist": 0.04740480235068704
  },
  "320": {
   "N": 4096,
   "Wr": 258.51914699468534,
   "Tw": 0.4022310551314175,
   "Lk": 258.9213780498168,
   "overtwist": 0.06321322706294355
  },
  "380": {
   "N": 5714,
   "Wr": 320.0016464397551,
   "Tw": -0.10211845898554497,
   "overtwist": 0.05598521665746755
  },
  "390": {
   "N": 5714,
   "Wr": 326.50921653905556,
   "Tw": 0.3938896281911611,
   "overtwist": 0.0572109041244744
  },
  "400": {
   "N": 5714,
   "Wr": 332.89453360418855,
   "Tw": 0.012019950051125968,
   "overtwist": 0.058261559949989446
  },
  "1": {
   "N": 476,
   "Wr": 0.5881172757250163,
   "Tw": -0.4971114539080095,
   "overtwist": 0.00019118870129623274
  },
  "3": {
   "N": 476,
   "Wr": 2.4106150258525783,
   "Tw": -0.4656149583729874,
   "overtwist": 0.004086134595545359
  },
  "5": {
   "N": 512,
   "Wr": 4.244892752989273,
   "Tw": -0.4063368659672415,
   "Lk": 3.8385558870220313,
   "overtwist": 0.007497179466839905
  },
  "6": {
   "N": 512,
   "Wr": 5.165796779688184,
   "Tw": -0.3630290464935072,
   "Lk": 4.802767733194677,
   "overtwist": 0.009380405728895853
  },
  "7": {
   "N": 512,
   "Wr": 6.089977603174408,
   "Tw": -0.31128446813400046,
   "Lk": 5.778693135040408,
   "overtwist": 0.011286510029375797
  },
  "9": {
   "N": 512,
   "Wr": 7.940569632953182,
   "Tw": -0.18203656208968225,
   "Lk": 7.7585330708635,
   "overtwist": 0.015153384904030273
  },
  "11": {
   "N": 512,
   "Wr": 9.77889219338396,
   "Tw": -0.01766038809704844,
   "Lk": 9.761231805286911,
   "overtwist": 0.019064905869701
  },
  "12": {
   "N": 512,
   "Wr": 10.68874409129466,
   "Tw": 0.07800836141903382,
   "Lk": 10.766752452713694,
   "overtwist": 0.021028813384206434
  },
  "13": {
   "N": 512,
   "Wr": 11.590756759890244,
   "Tw": 0.18283603031051895,
   "Lk": 11.773592790200762,
   "overtwist": 0.022995298418360864
  },
  "14": {
   "N": 512,
   "Wr": 12.484159813712472,
   "Tw": 0.2969565543268733,
   "Lk": 12.781116368039346,
   "overtwist": 0.024963117906326847
  },
  "15": {
   "N": 512,
   "Wr": 13.3684049820968,
   "Tw": 0.420508334006423,
   "Lk": 13.788913316103223,
   "overtwist": 0.026931471320514107
  },
  "17": {
   "N": 512,
   "Wr": 15.107977270002573,
   "Tw": -0.303518656545849,
   "Lk": 14.804458613456724,
   "overtwist": 0.028914958229407664
  },
  "18": {
   "N": 512,
   "Wr": 15.962774926216806,
   "Tw": -0.15079770070006132,
   "Lk": 15.811977225516745,
   "overtwist": 0.030882768018587393
  },
  "19": {
   "N": 512,
   "Wr": 16.80729588178128,
   "Tw": 0.011954285080940374,
   "Lk": 16.81925016686222,
   "overtwist": 0.03285009798215277
  },
  "21": {
   "N": 512,
   "Wr": 18.46479164299615,
   "Tw": 0.3682069306295374,
   "Lk": 18.832998573625687,
   "overtwist": 0.03678320033911267
  },
  "22": {
   "N": 512,
   "Wr": 19.277419193320135,
   "Tw": -0.43795082979003047,
   "Lk": 18.839468363530106,
   "overtwist": 0.03679583664751974
  },
  "23": {
   "N": 512,
   "Wr": 20.07907308360477,
   "Tw": -0.23339407035044815,
   "Lk": 19.84567901325432,
   "overtwist": 0.03876109182276234
  },
  "24": {
   "N": 512,
   "Wr": 20.869577885217932,
   "Tw": -0.017936877566587905,
   "Lk": 20.851641007651345,
   "overtwist": 0.040725861343069034
  },
  "26": {
   "N": 512,
   "Wr": 22.416413280440718,
   "Tw": 0.44645250406812087,
   "Lk": 22.862865784508838,
   "overtwist": 0.044654034735368824
  },
  "27": {
   "N": 512,
   "Wr": 23.172354560782246,
   "Tw": -0.30421124497404606,
   "Lk": 22.8681433158082,
   "overtwist": 0.04466434241368789
  },
  "28": {
   "N": 512,
   "Wr": 23.91638765390006,
   "Tw": -0.04316630396940037,
   "Lk": 23.87322134993066,
   "overtwist": 0.04662738544908332
  },
  "29": {
   "N": 512,
   "Wr": 24.64831174146742,
   "Tw": 0.2298074152931966,
   "Lk": 24.87811915676062,
   "overtwist": 0.04859007647804808
  },
  "31": {
   "N": 512,
   "Wr": 26.07490667955555,
   "Tw": -0.1875402383859524,
   "Lk": 25.887366441169597,
   "overtwist": 0.05056126258040937
  },
  "33": {
   "N": 512,
   "Wr": 27.45030778909586,
   "Tw": 0.445665375883365,
   "Lk": 27.895973164979225,
   "overtwist": 0.05448432258785005
  },
  "34": {
   "N": 512,
   "Wr": 28.11818577128752,
   "Tw": -0.2181368457187849,
   "Lk": 27.900048925568736,
   "overtwist": 0.05449228305775144
  },
  "35": {
   "N": 512,
   "Wr": 28.772526221969592,
   "Tw": 0.1314825791855789,
   "Lk": 28.90400880115517,
   "overtwist": 0.056453142189756195
  },
  "36": {
   "N": 512,
   "Wr": 29.41300991595582,
   "Tw": 0.4948041295371983,
   "Lk": 29.907814045493016,
   "overtwist": 0.058413699307603546
  },
  "37": {
   "N": 512,
   "Wr": 30.039404666853205,
   "Tw": -0.1278811207146953,
   "Lk": 29.91152354613851,
   "overtwist": 0.05842094442605178
  },
  "38": {
   "N": 512,
   "Wr": 30.651374465103142,
   "Tw": 0.26372793689717733,
   "Lk": 30.91510240200032,
   "overtwist": 0.06038105937890687
  },
  "39": {
   "N": 512,
   "Wr": 31.24862008977618,
   "Tw": -0.33005654379025334,
   "Lk": 30.918563545985926,
   "overtwist": 0.06038781942575376
  },
  "41": {
   "N": 1024,
   "Wr": 36.7568408945917,
   "Tw": 0.07091223327460691,
   "overtwist": 0.035964602663931936
  },
  "42": {
   "N": 476,
   "Wr": 32.121090468571246,
   "Tw": -0.1831832786905853,
   "overtwist": 0.06709644367621988
  },
  "43": {
   "N": 476,
   "Wr": 32.60213021447149,
   "Tw": 0.33880389640082004,
   "overtwist": 0.06920364309006787
  },
  "44": {
   "N": 476,
   "Wr": 33.06410957149549,
   "Tw": -0.12021641990599488,
   "overtwist": 0.06920985956216281
  },
  "45": {
   "N": 1024,
   "Wr": 39.99356947592591,
   "Tw": -0.15232810756969253,
   "Lk": 39.841241368356215,
   "overtwist": 0.038907462273785366
  },
  "46": {
   "N": 476,
   "Wr": 33.92875726200671,
   "Tw": 0.020743427084831796,
   "overtwist": 0.07132248043926795
  },
  "47": {
   "N": 476,
   "Wr": 34.33041339955887,
   "Tw": -0.3782170556847516,
   "overtwist": 0.07132814357956749
  },
  "48": {
   "N": 476,
   "Wr": 34.71090676374769,
   "Tw": 0.2439347301113878,
   "overtwist": 0.07343454095348546
  },
  "49": {
   "N": 476,
   "Wr": 35.0696275881144,
   "Tw": -0.11222133148077776,
   "overtwist": 0.07343992911057484
  },
  "51": {
   "N": 476,
   "Wr": 35.71930286816358,
   "Tw": 0.2429674715325933,
   "overtwist": 0.07555098810860542
  },
  "52": {
   "N": 476,
   "Wr": 36.009043794391125,
   "Tw": -0.04442181606352257,
   "overtwist": 0.07555592852589832
  },
  "53": {
   "N": 476,
   "Wr": 36.274520923200946,
   "Tw": -0.3075867897324909,
   "overtwist": 0.07556078599468163
  },
  "54": {
   "N": 476,
   "Wr": 36.51502439541751,
   "Tw": 0.4541601092057729,
   "overtwist": 0.07766635400130942
  },
  "55": {
   "N": 1024,
   "Wr": 47.6960599196048,
   "Tw": 0.1739242991291772,
   "Lk": 47.869984218733975,
   "overtwist": 0.0467480314636074
  },
  "56": {
   "N": 476,
   "Wr": 36.91819295979327,
   "Tw": 0.055249217733291986,
   "overtwist": 0.07767529869228268
  },
  "57": {
   "N": 952,
   "Wr": 48.53834129952692,
   "Tw": 0.3469638304845193,
   "overtwist": 0.051350110430684284
  },
  "58": {
   "N": 952,
   "Wr": 49.23781093881096,
   "Tw": -0.35008574867503506,
   "overtwist": 0.05135265251064698
  },
  "59": {
   "N": 952,
   "Wr": 49.930422888459375,
   "Tw": -0.04032739097715479,
   "overtwist": 0.05240556249735528
  },
  "65": {
   "N": 1024,
   "Wr": 54.80275505059663,
   "Tw": 0.09063790835431573,
   "Lk": 54.89339295895095,
   "overtwist": 0.053606829061475535
  }
 },
 "helix_in": {
  "2": {
   "N": 476,
   "Wr": -1.611438821123922,
   "Tw": -0.48026840009032545,
   "overtwist": -0.004394342901710604
  },
  "4": {
   "N": 476,
   "Wr": -3.659046333324987,
   "Tw": -0.42584702385800355,
   "overtwist": -0.008581708733577711
  },
  "8": {
   "N": 512,
   "Wr": -7.9400542397558524,
   "Tw": -0.230342331231745,
   "Lk": -8.170396570987597,
   "overtwist": -0.01595780580271015
  },
  "16": {
   "N": 512,
   "Wr": -16.922725617390206,
   "Tw": -0.40347891547290443,
   "Lk": -17.326204532863112,
   "overtwist": -0.033840243228248267
  },
  "32": {
   "N": 512,
   "Wr": -36.70183294968,
   "Tw": 0.21663320622167936,
   "Lk": -36.485199743458324,
   "overtwist": -0.07126015574894204
  },
  "64": {
   "N": 5714,
   "Wr": -65.11744455555502,
   "Tw": -0.024899312282164885,
   "overtwist": -0.011400480200881552
  },
  "128": {
   "N": 5714,
   "Wr": -133.7987563399326,
   "Tw": -0.4681345816848699,
   "overtwist": -0.02349788080532332
  },
  "200": {
   "N": 5714,
   "Wr": -215.00740309918754,
   "Tw": -0.3453724909964607,
   "overtwist": -0.03768862015929016
  },
  "256": {
   "N": 5714,
   "Wr": -281.34351522562145,
   "Tw": -0.061056888913393746,
   "overtwist": -0.04924826253317026
  },
  "300": {
   "N": 5714,
   "Wr": -335.58894053678034,
   "Tw": 0.14812007737942953,
   "overtwist": -0.05870507883433688
  },
  "350": {
   "N": 5714,
   "Wr": -399.6911475110034,
   "Tw": 0.21194861337100873,
   "overtwist": -0.06991235542485691
  },
  "512": {
   "N": 5714,
   "Wr": -628.3827327682474,
   "Tw": -0.2193549819734971,
   "overtwist": -0.11001086589958364
  },
  "25": {
   "N": 512,
   "Wr": -27.70290895061549,
   "Tw": 0.27896201537164367,
   "Lk": -27.423946935243848,
   "overtwist": -0.05356239635789814
  },
  "50": {
   "N": 1024,
   "Wr": -55.43464072313709,
   "Tw": 0.010538568642864857,
   "Lk": -55.42410215449423,
   "overtwist": -0.05412509976024827
  },
  "75": {
   "N": 1024,
   "Wr": -88.30239549037947,
   "Tw": -0.22812966545958113,
   "Lk": -88.53052515583904,
   "overtwist": -0.08645559097249907
  },
  "100": {
   "N": 5714,
   "Wr": -103.36611812629675,
   "Tw": 0.14394695051048828,
   "overtwist": -0.018064783194922343
  },
  "125": {
   "N": 5714,
   "Wr": -130.50848556635688,
   "Tw": 0.24581734371721778,
   "overtwist": -0.022797106794301657
  },
  "150": {
   "N": 5714,
   "Wr": -158.15023958281242,
   "Tw": -0.14641095865702114,
   "overtwist": -0.027703299009707635
  },
  "175": {
   "N": 5714,
   "Wr": -186.3101704381477,
   "Tw": -0.016095523573759492,
   "overtwist": -0.03260872697965024
  },
  "225": {
   "N": 5714,
   "Wr": -244.26194620768348,
   "Tw": -0.11504511329739324,
   "overtwist": -0.04276811188676599
  },
  "250": {
   "N": 5714,
   "Wr": -274.09501178996624,
   "Tw": -0.3044644398803118,
   "overtwist": -0.048022309455695925
  },
  "275": {
   "N": 5714,
   "Wr": -304.52924832961565,
   "Tw": 0.10860322469862055,
   "overtwist": -0.053276276707195834
  },
  "325": {
   "N": 5714,
   "Wr": -367.30019667144705,
   "Tw": -0.16006612960756977,
   "overtwist": -0.06430876142825598
  },
  "375": {
   "N": 5714,
   "Wr": -432.79213798196275,
   "Tw": 0.29431015688127815,
   "overtwist": -0.07569090441460999
  },
  "40": {
   "N": 512,
   "Wr": -47.767423578823184,
   "Tw": 0.21536821903378006,
   "Lk": -47.55205535978941,
   "overtwist": -0.09287510812458868
  },
  "140": {
   "N": 5714,
   "Wr": -147.0324076100246,
   "Tw": -0.2512666559965867,
   "overtwist": -0.025775931793143362
  },
  "240": {
   "N": 5714,
   "Wr": -262.09094777304466,
   "Tw": -0.2997129479319279,
   "overtwist": -0.04592066165925387
  },
  "340": {
   "N": 5714,
   "Wr": -386.6513134743379,
   "Tw": 0.17964178158427146,
   "overtwist": -0.067635924342449
  },
  "60": {
   "N": 1024,
   "Wr": -68.10983669677428,
   "Tw": -0.35821748513492474,
   "Lk": -68.46805418190921,
   "overtwist": -0.06686333416202071
  },
  "160": {
   "N": 2048,
   "Wr": -190.61373801339812,
   "Tw": 0.06257597888972623,
   "Lk": -190.5511620345084,
   "overtwist": -0.0930425595871623
  },
  "260": {
   "N": 5714,
   "Wr": -286.1952450457579,
   "Tw": -0.21283737511239798,
   "overtwist": -0.05012392061968328
  },
  "360": {
   "N": 5714,
   "Wr": -412.8445597600515,
   "Tw": 0.3578836794907514,
   "overtwist": -0.07218877775298578
  },
  "30": {
   "N": 512,
   "Wr": -34.070224208178736,
   "Tw": -0.3980477436537005,
   "Lk": -34.468271951832435,
   "overtwist": -0.06732084365592272
  },
  "130": {
   "N": 5714,
   "Wr": -135.9962824806237,
   "Tw": -0.2736162180584348,
   "overtwist": -0.02384842469350405
  },
  "230": {
   "N": 5714,
   "Wr": -250.18157472523242,
   "Tw": -0.20003703152150698,
   "overtwist": -0.04381897300608224
  },
  "330": {
   "N": 5714,
   "Wr": -373.72307391311267,
   "Tw": 0.25898956544097806,
   "overtwist": -0.0653594827349793
  },
  "70": {
   "N": 1024,
   "Wr": -81.40318968894202,
   "Tw": -0.10661046005809031,
   "Lk": -81.50980014900011,
   "overtwist": -0.07959941420800792
  },
  "80": {
   "N": 1024,
   "Wr": -95.3824505749729,
   "Tw": -0.1690216539606947,
   "Lk": -95.5514722289336,
   "overtwist": -0.09331198459856797
  },
  "170": {
   "N": 5714,
   "Wr": -180.63582220272696,
   "Tw": 0.31519877283522924,
   "overtwist": -0.03155768698458028
  },
  "270": {
   "N": 5714,
   "Wr": -298.393167463235,
   "Tw": -0.023333295812312138,
   "overtwist": -0.052225498907778674
  },
  "370": {
   "N": 5714,
   "Wr": -426.1136000627973,
   "Tw": -0.3805172758640881,
   "overtwist": -0.07464020254439295
  },
  "180": {
   "N": 5714,
   "Wr": -192.00600791849942,
   "Tw": -0.3257780128527072,
   "overtwist": -0.03365974552526289
  },
  "10": {
   "N": 512,
   "Wr": -10.143302220811233,
   "Tw": -0.07825490385442653,
   "Lk": -10.22155712466566,
   "overtwist": -0.019963978759112617
  },
  "20": {
   "N": 512,
   "Wr": -21.61369962868706,
   "Tw": 0.23963184457526412,
   "Lk": -21.374067784111794,
   "overtwist": -0.04174622614084335
  },
  "90": {
   "N": 2048,
   "Wr": -98.67970571379308,
   "Tw": 0.27920457372841323,
   "Lk": -98.40050114006468,
   "overtwist": -0.048047119697297205
  },
  "110": {
   "N": 5714,
   "Wr": -114.16435721216517,
   "Tw": -0.07499575328082428,
   "overtwist": -0.019992886413273715
  },
  "120": {
   "N": 5714,
   "Wr": -125.04066678198518,
   "Tw": -0.21451662899436746,
   "overtwist": -0.021920753134578152
  },
  "190": {
   "N": 5714,
   "Wr": -203.46277831659182,
   "Tw": 0.12029193127349279,
   "overtwist": -0.03558671445315337
  },
  "210": {
   "N": 5714,
   "Wr": -226.64118554039,
   "Tw": 0.27848350438788727,
   "overtwist": -0.03961545362898182
  },
  "220": {
   "N": 5714,
   "Wr": -238.36545430858894,
   "Tw": -0.006848166472004247,
   "overtwist": -0.04171723879507542
  },
  "280": {
   "N": 5714,
   "Wr": -310.6903425568776,
   "Tw": 0.2655917231484076,
   "overtwist": -0.054327047748290024
  },
  "290": {
   "N": 5714,
   "Wr": -323.0883807285441,
   "Tw": -0.34447066680996463,
   "overtwist": -0.056603579173145624
  },
  "310": {
   "N": 5714,
   "Wr": -348.19372726917703,
   "Tw": -0.2549446935233565,
   "overtwist": -0.06098156667180616
  },
  "320": {
   "N": 4096,
   "Wr": -381.07696134787335,
   "Tw": -0.4740408525497637,
   "Lk": -381.5510022004231,
   "overtwist": -0.09315210014658767
  },
  "380": {
   "N": 5714,
   "Wr": -439.5003795188587,
   "Tw": -0.001153529481104404,
   "overtwist": -0.07691661411416517
  },
  "390": {
   "N": 5714,
   "Wr": -453.00707716996845,
   "Tw": 0.49814210360374284,
   "overtwist": -0.0791930232877782
  },
  "400": {
   "N": 5714,
   "Wr": -466.6359417014338,
   "Tw": 0.1196062467421121,
   "overtwist": -0.08164444092661738
  },
  "1": {
   "N": 476,
   "Wr": -0.6199589647173838,
   "Tw": -0.4944138446774054,
   "overtwist": -0.0023411193474680444
  },
  "3": {
   "N": 476,
   "Wr": -2.6223504888492624,
   "Tw": -0.4574514267521874,
   "overtwist": -0.006470172091599684
  },
  "5": {
   "N": 512,
   "Wr": -4.699362516737865,
   "Tw": -0.3935973370288825,
   "Lk": -5.0929598537667475,
   "overtwist": -0.009947187214388179
  },
  "6": {
   "N": 512,
   "Wr": -5.768038767304634,
   "Tw": -0.34767633406378684,
   "Lk": -6.115715101368421,
   "overtwist": -0.011944756057360197
  },
  "7": {
   "N": 512,
   "Wr": -6.849280425837105,
   "Tw": -0.29329530583678237,
   "Lk": -7.142575731673888,
   "overtwist": -0.013950343225925562
  },
  "9": {
   "N": 512,
   "Wr": -9.03836680694921,
   "Tw": -0.15870190851646665,
   "Lk": -9.197068715465676,
   "overtwist": -0.017963024834893898
  },
  "11": {
   "N": 512,
   "Wr": -11.254729873795856,
   "Tw": 0.01112144443000239,
   "Lk": -11.243608429365853,
   "overtwist": -0.021960172713605182
  },
  "12": {
   "N": 512,
   "Wr": -12.37294558107578,
   "Tw": 0.10955387134718308,
   "Lk": -12.263391709728596,
   "overtwist": -0.023951936933063665
  },
  "13": {
   "N": 512,
   "Wr": -13.498402461603833,
   "Tw": 0.21717301855366616,
   "Lk": -13.281229443050167,
   "overtwist": -0.025939901255957357
  },
  "14": {
   "N": 512,
   "Wr": -14.631569577978158,
   "Tw": 0.3341136855634577,
   "Lk": -14.297455892414701,
   "overtwist": -0.027924718539872464
  },
  "15": {
   "N": 512,
   "Wr": -15.772883125758868,
   "Tw": 0.4605151554573048,
   "Lk": -15.312367970301564,
   "overtwist": -0.02990696869199524
  },
  "17": {
   "N": 512,
   "Wr": -18.08143791414711,
   "Tw": -0.2577200705855638,
   "Lk": -18.339157984732672,
   "overtwist": -0.035818667938931
  },
  "18": {
   "N": 512,
   "Wr": -19.249322485892208,
   "Tw": -0.10205510638920515,
   "Lk": -19.351377592281413,
   "overtwist": -0.037795659359924634
  },
  "19": {
   "N": 512,
   "Wr": -20.426657164607757,
   "Tw": 0.06367432184299278,
   "Lk": -20.362982842764765,
   "overtwist": -0.03977145086477493
  },
  "21": {
   "N": 512,
   "Wr": -22.810696376185128,
   "Tw": 0.4259864838669284,
   "Lk": -22.3847098923182,
   "overtwist": -0.04372013650843398
  },
  "22": {
   "N": 512,
   "Wr": -24.017883535690828,
   "Tw": -0.3770869297022628,
   "Lk": -24.39497046539309,
   "overtwist": -0.04764642669022088
  },
  "23": {
   "N": 512,
   "Wr": -25.235494053825278,
   "Tw": -0.1694078103743916,
   "Lk": -25.40490186419967,
   "overtwist": -0.04961894895351498
  },
  "24": {
   "N": 512,
   "Wr": -26.463758889399898,
   "Tw": 0.04921078038725294,
   "Lk": -26.414548109012646,
   "overtwist": -0.051590914275415324
  },
  "26": {
   "N": 512,
   "Wr": -28.95317726082364,
   "Tw": -0.47995419283323304,
   "Lk": -29.433131453656873,
   "overtwist": -0.05748658487042358
  },
  "27": {
   "N": 512,
   "Wr": -30.214800558809145,
   "Tw": -0.2273310101145432,
   "Lk": -30.44213156892369,
   "overtwist": -0.05945728822055408
  },
  "28": {
   "N": 512,
   "Wr": -31.488018551545228,
   "Tw": 0.037045503255955375,
   "Lk": -31.45097304828927,
   "overtwist": -0.06142768173493998
  },
  "29": {
   "N": 512,
   "Wr": -32.77307532777999,
   "Tw": 0.3133968949520379,
   "Lk": -32.45967843282796,
   "overtwist": -0.0633978094391171
  },
  "31": {
   "N": 512,
   "Wr": -35.379721618986586,
   "Tw": -0.0970507789487875,
   "Lk": -35.47677239793537,
   "overtwist": -0.06929057108971752
  },
  "33": {
   "N": 512,
   "Wr": -38.036831389942904,
   "Tw": -0.45674121865944906,
   "Lk": -38.493572608602356,
   "overtwist": -0.07518275900117648
  },
  "34": {
   "N": 512,
   "Wr": -39.38499750432903,
   "Tw": -0.116910600809612,
   "Lk": -39.50190810513864,
   "overtwist": -0.0771521642678489
  },
  "35": {
   "N": 512,
   "Wr": -40.74662143951906,
   "Tw": 0.23639806692258314,
   "Lk": -40.51022337259648,
   "overtwist": -0.0791215300246025
  },
  "36": {
   "N": 512,
   "Wr": -42.12200266570527,
   "Tw": -0.396532677389606,
   "Lk": -42.518535343094875,
   "overtwist": -0.08304401434198218
  },
  "37": {
   "N": 512,
   "Wr": -43.5114487856999,
   "Tw": -0.015409899266431009,
   "Lk": -43.52685868496633,
   "overtwist": -0.08501339586907486
  },
  "38": {
   "N": 512,
   "Wr": -44.91528034081671,
   "Tw": 0.3800697844410973,
   "Lk": -44.53521055637561,
   "overtwist": -0.08698283311792111
  },
  "39": {
   "N": 512,
   "Wr": -46.33382501498411,
   "Tw": -0.20977932543016287,
   "Lk": -46.54360434041427,
   "overtwist": -0.09090547722737162
  },
  "41": {
   "N": 1024,
   "Wr": -44.507414950239756,
   "Tw": 0.1270412681286073,
   "overtwist": -0.04334020867393667
  },
  "42": {
   "N": 476,
   "Wr": -51.56038193072386,
   "Tw": -0.03695835091670909,
   "overtwist": -0.10839777370092556
  },
  "43": {
   "N": 476,
   "Wr": -53.096976848636956,
   "Tw": 0.4898468128771435,
   "overtwist": -0.11051918074739456
  },
  "44": {
   "N": 476,
   "Wr": -54.652831096796795,
   "Tw": 0.03574499010130161,
   "overtwist": -0.11474177753507457
  },
  "45": {
   "N": 1024,
   "Wr": -49.31042847362149,
   "Tw": -0.09004532647892223,
   "Lk": -49.400473800100414,
   "overtwist": -0.04824265019541056
  },
  "46": {
   "N": 476,
   "Wr": -57.82439509486624,
   "Tw": 0.18685951962135347,
   "overtwist": -0.12108725961185901
  },
  "47": {
   "N": 476,
   "Wr": -59.44118754793676,
   "Tw": -0.20685630164406035,
   "overtwist": -0.125311016490716
  },
  "48": {
   "N": 476,
   "Wr": -61.07940654756624,
   "Tw": 0.4206576898768386,
   "overtwist": -0.12743434633968362
  },
  "49": {
   "N": 476,
   "Wr": -62.739639767485436,
   "Tw": 0.06998609569123056,
   "overtwist": -0.13165893628528194
  },
  "51": {
   "N": 476,
   "Wr": -66.12859250185463,
   "Tw": 0.43653054399437063,
   "overtwist": -0.13800853352491652
  },
  "52": {
   "N": 476,
   "Wr": -67.85858249364348,
   "Tw": 0.15502293076590995,
   "overtwist": -0.14223436882957474
  },
  "53": {
   "N": 476,
   "Wr": -69.61312821986783,
   "Tw": -0.10211715026305859,
   "overtwist": -0.1464605995170817
  },
  "54": {
   "N": 476,
   "Wr": -71.39291394492452,
   "Tw": -0.33419630664950845,
   "overtwist": -0.15068720641086977
  },
  "55": {
   "N": 1024,
   "Wr": -61.698789854645455,
   "Tw": 0.25228542501535667,
   "Lk": -61.446504429630096,
   "overtwist": -0.06000635198206064
  },
  "56": {
   "N": 476,
   "Wr": -75.03103775059343,
   "Tw": 0.2797122907728045,
   "overtwist": -0.15704059970550552
  },
  "57": {
   "N": 952,
   "Wr": -64.90968427160969,
   "Tw": 0.4360574130021119,
   "overtwist": -0.06772439796072224
  },
  "58": {
   "N": 952,
   "Wr": -66.21904042651755,
   "Tw": -0.25911688593220017,
   "overtwist": -0.06982999717694302
  },
  "59": {
   "N": 952,
   "Wr": -67.53520003862653,
   "Tw": 0.052531486679454925,
   "overtwist": -0.0708851560419612
  },
  "65": {
   "N": 1024,
   "Wr": -74.67526844441592,
   "Tw": 0.18620796675460413,
   "Lk": -74.48906047766131,
   "overtwist": -0.07274322312271612
  }
 },
 "double_helix": {
  "5": {
   "N": 512,
   "Wr": -9.844764507595114,
   "Tw": -0.1552355062309077,
   "Lk": -10.000000013826021,
   "overtwist": -0.019531250027003948
  },
  "6": {
   "N": 512,
   "Wr": -11.773319718330663,
   "Tw": -0.22668028166955323,
   "Lk": -12.000000000000217,
   "overtwist": -0.023437500000000423
  },
  "7": {
   "N": 512,
   "Wr": -13.679827573344532,
   "Tw": -0.320172426655421,
   "Lk": -13.999999999999954,
   "overtwist": -0.02734374999999991
  },
  "8": {
   "N": 512,
   "Wr": -15.56059744009277,
   "Tw": -0.4394025599062394,
   "Lk": -15.99999999999901,
   "overtwist": -0.031249999999998068
  },
  "9": {
   "N": 512,
   "Wr": -17.411924890271624,
   "Tw": 0.4119248869199423,
   "Lk": -17.000000003351683,
   "overtwist": -0.03320312500654626
  },
  "10": {
   "N": 512,
   "Wr": -19.23008508403447,
   "Tw": 0.23008507830739747,
   "Lk": -19.000000005727074,
   "overtwist": -0.03710937501118569
  },
  "11": {
   "N": 512,
   "Wr": -21.01132419882146,
   "Tw": 0.011324198810255287,
   "Lk": -21.000000000011205,
   "overtwist": -0.041015625000021885
  },
  "12": {
   "N": 512,
   "Wr": -22.75184858138315,
   "Tw": -0.24815141624543002,
   "Lk": -22.99999999762858,
   "overtwist": -0.04492187499536832
  },
  "13": {
   "N": 512,
   "Wr": -24.44781126013758,
   "Tw": 0.44781126800309123,
   "Lk": -23.99999999213449,
   "overtwist": -0.04687499998463768
  },
  "14": {
   "N": 512,
   "Wr": -26.09529539840831,
   "Tw": 0.09529541267015534,
   "Lk": -25.999999985738157,
   "overtwist": -0.05078124997214484
  },
  "15": {
   "N": 512,
   "Wr": -27.690294201434845,
   "Tw": -0.30970579208056226,
   "Lk": -27.99999999351541,
   "overtwist": -0.054687499987334784
  },
  "16": {
   "N": 512,
   "Wr": -29.228686673538707,
   "Tw": 0.2286866705736003,
   "Lk": -29.000000002965105,
   "overtwist": -0.05664062500579122
  },
  "17": {
   "N": 512,
   "Wr": -30.706208531033262,
   "Tw": -0.2937914689661717,
   "Lk": -30.999999999999435,
   "overtwist": -0.0605468749999989
  },
  "18": {
   "N": 512,
   "Wr": -32.11841736056951,
   "Tw": 0.11841735386157846,
   "Lk": -32.00000000670793,
   "overtwist": -0.06250000001310142
  },
  "19": {
   "N": 512,
   "Wr": -33.46065092533197,
   "Tw": 0.46065092769918325,
   "Lk": -32.999999997632784,
   "overtwist": -0.06445312499537653
  },
  "20": {
   "N": 512,
   "Wr": -34.727977204893385,
   "Tw": -0.2720227954531229,
   "Lk": -35.00000000034651,
   "overtwist": -0.06835937500067678
  },
  "21": {
   "N": 512,
   "Wr": -35.91513436019079,
   "Tw": -0.08486555774715762,
   "Lk": -35.99999991793795,
   "overtwist": -0.07031249983972256
  },
  "22": {
   "N": 512,
   "Wr": -37.01645827432213,
   "Tw": 0.016458274329787626,
   "Lk": -36.99999999999235,
   "overtwist": -0.07226562499998505
  },
  "23": {
   "N": 512,
   "Wr": -38.025794582795584,
   "Tw": 0.025794578707112187,
   "Lk": -38.00000000408847,
   "overtwist": -0.07421875000798529
  },
  "24": {
   "N": 512,
   "Wr": -38.93639108653068,
   "Tw": -0.06360892201983322,
   "Lk": -39.000000008550515,
   "overtwist": -0.07617187501670022
  },
  "25": {
   "N": 512,
   "Wr": -39.74076501014681,
   "Tw": -0.2592349754306432,
   "Lk": -39.99999998557745,
   "overtwist": -0.07812499997183096
  },
  "26": {
   "N": 512,
   "Wr": -40.43053752781227,
   "Tw": 0.4305375325563901,
   "Lk": -39.99999999525588,
   "overtwist": -0.07812499999073413
  },
  "27": {
   "N": 512,
   "Wr": -40.996225014112085,
   "Tw": -0.0037749754211824924,
   "Lk": -40.999999989533265,
   "overtwist": -0.08007812497955716
  },
  "28": {
   "N": 512,
   "Wr": -41.42697208243591,
   "Tw": 0.4269720848067486,
   "Lk": -40.99999999762916,
   "overtwist": -0.08007812499536945
  },
  "29": {
   "N": 512,
   "Wr": -41.71020480096284,
   "Tw": -0.2897951995956525,
   "Lk": -42.000000000558494,
   "overtwist": -0.08203125000109081
  },
  "30": {
   "N": 512,
   "Wr": -41.83117207663858,
   "Tw": -0.1688279101591758,
   "Lk": -41.999999986797754,
   "overtwist": -0.08203124997421436
  },
  "31": {
   "N": 512,
   "Wr": -41.77232649415478,
   "Tw": -0.22767349557609326,
   "Lk": -41.999999989730874,
   "overtwist": -0.08203124997994311
  },
  "32": {
   "N": 512,
   "Wr": -41.51246812582162,
   "Tw": -0.48753186663249015,
   "Lk": -41.99999999245411,
   "overtwist": -0.08203124998526193
  },
  "33": {
   "N": 512,
   "Wr": -41.02552677203159,
   "Tw": 0.02552676110564123,
   "Lk": -41.00000001092595,
   "overtwist": -0.08007812502133975
  },
  "34": {
   "N": 512,
   "Wr": -40.27877093959235,
   "Tw": 0.27877090703674207,
   "Lk": -40.000000032555604,
   "overtwist": -0.07812500006358516
  },
  "35": {
   "N": 512,
   "Wr": -39.23006472472995,
   "Tw": 0.2300647214578243,
   "Lk": -39.00000000327213,
   "overtwist": -0.07617187500639087
  },
  "36": {
   "N": 512,
   "Wr": -37.823450736612116,
   "Tw": -0.17654923696556438,
   "Lk": -37.99999997357768,
   "overtwist": -0.0742187499483939
  },
  "37": {
   "N": 512,
   "Wr": -35.981571271518995,
   "Tw": -0.018428735980628566,
   "Lk": -36.00000000749962,
   "overtwist": -0.0703125000146477
  },
  "38": {
   "N": 512,
   "Wr": -33.591534436540194,
   "Tw": -0.4084655874494744,
   "Lk": -34.00000002398967,
   "overtwist": -0.06640625004685483
  },
  "39": {
   "N": 512,
   "Wr": -30.475350592299854,
   "Tw": 0.4753506071101095,
   "Lk": -29.999999985189746,
   "overtwist": -0.05859374997107372
  },
  "40": {
   "N": 512,
   "Wr": -26.316634257109502,
   "Tw": 0.3166342651939982,
   "Lk": -25.999999991915505,
   "overtwist": -0.05078124998420997
  }
 }
}